{
  "project_info": {
    "project_number": "138993112830",
    "project_id": "flutter-chat-57d18",
    "storage_bucket": "flutter-chat-57d18.appspot.com"
  },
  "client": [
    {
      "client_info": {
        "mobilesdk_app_id": "1:138993112830:android:26eb24433688097210f7af",
        "android_client_info": {
          "package_name": "com.example.chat_app"
        }
      },
      "oauth_client": [
        {
          "client_id": "138993112830-1tnln6fqf14750cqmaaqnb7i0g8suan0.apps.googleusercontent.com",
          "client_type": 3
        }
      ],
      "api_key": [
        {
          "current_key": "AIzaSyAu0igUOY5GlMdG0gC25a6goRQtdlRp3DY"
        }
      ],
      "services": {
        "appinvite_service": {
          "other_platform_oauth_client": [
            {
              "client_id": "138993112830-1tnln6fqf14750cqmaaqnb7i0g8suan0.apps.googleusercontent.com",
              "client_type": 3
            },
            {
              "client_id": "138993112830-6d24pj70t9tk1gbrc79mg0shiuuis2hr.apps.googleusercontent.com",
              "client_type": 2,
              "ios_info": {
                "bundle_id": "flutterchat.com"
              }
            }
          ]
        }
      }
    }
  ],
  "configuration_version": "1"
}